<svg width="1440" height="199" viewBox="0 0 1440 199" fill="none" xmlns="http://www.w3.org/2000/svg">
<path d="M0.103063 199L0 108.655C0 108.655 333.162 -69.2706 607.823 31.3443C661.545 51.0244 691.469 66.2932 722.156 81.9519C758.848 100.675 796.633 119.955 877.5 148C995.667 190.932 1250.5 224.5 1440 108.148V199H0.103063Z" fill="#F6F7FF"/>
</svg>
