<svg width="14" height="14" viewBox="0 0 14 14" fill="none" xmlns="http://www.w3.org/2000/svg">
<path fill-rule="evenodd" clip-rule="evenodd" d="M11.835 0H2.165C0.969303 0 0 0.969303 0 2.165V11.835C0 13.0307 0.969303 14 2.165 14H11.835C13.0307 14 14 13.0307 14 11.835V2.165C14 0.969303 13.0307 0 11.835 0ZM9 10.045C9 10.2963 8.79629 10.5 8.545 10.5H5.455C5.20371 10.5 5 10.2963 5 10.045V9.955C5 9.70371 5.20371 9.5 5.455 9.5H8.545C8.79629 9.5 9 9.70371 9 9.955V10.045ZM9.545 8.5C9.79629 8.5 10 8.29629 10 8.045V7.955C10 7.70371 9.79629 7.5 9.545 7.5H4.455C4.20371 7.5 4 7.70371 4 7.955V8.045C4 8.29629 4.20371 8.5 4.455 8.5H9.545ZM5 6.045V5.955C5 5.70371 5.20371 5.5 5.455 5.5H8.545C8.79629 5.5 9 5.70371 9 5.955V6.045C9 6.29629 8.79629 6.5 8.545 6.5H5.455C5.20371 6.5 5 6.29629 5 6.045ZM10.8667 4.36673C10.9521 4.2814 11 4.16567 11 4.045V3.955C11 3.83433 10.9521 3.7186 10.8667 3.63327C10.7814 3.54794 10.6657 3.5 10.545 3.5H3.455C3.33433 3.5 3.2186 3.54794 3.13327 3.63327C3.04794 3.7186 3 3.83433 3 3.955V4.045C3 4.29629 3.20371 4.5 3.455 4.5H10.545C10.6657 4.5 10.7814 4.45206 10.8667 4.36673Z" fill="#414040"/>
</svg>
