<svg width="99" height="77" viewBox="0 0 99 77" fill="none" xmlns="http://www.w3.org/2000/svg">
<path d="M44.3265 15.5102H54.3673V19.3265H44.3265C43.275 19.3153 42.4285 18.4597 42.4285 17.4082C42.4285 16.3599 43.2783 15.5102 44.3265 15.5102V15.5102Z" fill="#CCD8E5"/>
<path d="M52 10.0816H62.0408V13.8979H52C51.493 13.898 51.0072 13.6952 50.6506 13.3348C50.2941 12.9745 50.0965 12.4865 50.102 11.9796C50.102 10.9313 50.9517 10.0816 52 10.0816Z" fill="#CCD8E5"/>
<path d="M67.3877 5.42859H74.6326C75.3522 5.44718 76.0088 5.84351 76.3605 6.47157C76.7123 7.09964 76.7071 7.86655 76.3469 8.48981L63.7347 29.3674H32.6939L57.1837 9.14287C60.0472 6.75159 63.6571 5.43758 67.3877 5.42859V5.42859Z" fill="#3D5AFE"/>
<path d="M3.67348 33.7551C5.57513 32.6994 7.30287 31.3571 8.79593 29.7755C10.2757 28.0897 12.4099 27.123 14.6531 27.1224H83.7143L87.2653 20.1428C88.1305 18.4613 89.864 17.4054 91.7551 17.4081H96.7347C97.1138 17.4071 97.4734 17.5761 97.7146 17.8686C97.9557 18.1612 98.053 18.5464 97.9796 18.9184L95.1429 32.653C93.3408 41.4318 85.6149 47.7336 76.6531 47.7347H8.04082C3.98885 47.8373 0.523811 44.8407 0.0408249 40.8163C-0.178734 37.9655 1.22643 35.2341 3.67348 33.7551Z" fill="#CCD8E5"/>
<path d="M3.67346 33.7551C5.57512 32.6994 7.30286 31.3571 8.79591 29.7755C10.2757 28.0897 12.4099 27.123 14.6531 27.1224H83.7143L87.2653 20.1428C88.1304 18.4613 89.864 17.4054 91.7551 17.4081H96.7347C97.0961 17.4029 97.4407 17.5602 97.6735 17.8367L96.2245 24.9184C94.4293 33.7127 86.69 40.0271 77.7143 40.0204H0.0408096C0.113335 37.4518 1.48029 35.0942 3.67346 33.7551Z" fill="#DFE8F4"/>
<path d="M18.2449 32C18.2339 32.8858 17.5184 33.6013 16.6326 33.6123H3.91834C5.46894 32.702 6.90735 31.6129 8.20406 30.3674H16.6326C17.5263 30.3785 18.2449 31.1062 18.2449 32H18.2449Z" fill="#3D5AFE"/>
<path d="M44.3265 53.8775H54.3673V50.0612H44.3265C43.275 50.0724 42.4285 50.928 42.4285 51.9796C42.4285 53.0278 43.2783 53.8775 44.3265 53.8775Z" fill="#CCD8E5"/>
<path d="M52 59.3061H62.0408V55.4898H52C51.493 55.4898 51.0072 55.6925 50.6506 56.0529C50.2941 56.4133 50.0965 56.9013 50.102 57.4082C50.102 57.9115 50.302 58.3943 50.6579 58.7502C51.0138 59.1062 51.4966 59.3061 52 59.3061Z" fill="#CCD8E5"/>
<path d="M67.3877 63.9592H74.6326C75.3522 63.9406 76.0088 63.5442 76.3605 62.9162C76.7123 62.2881 76.7071 61.5212 76.3469 60.8979L63.7347 40.0204H32.6939L57.1837 60.2449C60.0472 62.6362 63.6571 63.9502 67.3877 63.9592Z" fill="#324CE0"/>
<path d="M65.8163 43.4694H36.8367L32.6734 40.0204H63.7347L65.8163 43.4694Z" fill="#156CDD"/>
<path d="M87.2449 20.1428C88.1101 18.4613 89.8436 17.4054 91.7347 17.4081H96.7347C97.1138 17.4071 97.4734 17.5761 97.7146 17.8686C97.9557 18.1612 98.053 18.5464 97.9796 18.9184L96.2857 27.0816H83.7143L87.2449 20.1428Z" fill="#3D5AFE"/>
<path d="M98 18.9796L96.3265 27.1429H85.6939L88.6735 21.2245C89.3651 19.8519 90.7691 18.9843 92.3061 18.9796L98 18.9796Z" fill="#324CE0"/>
<path d="M39.7346 23.5102H67.2653L65.0816 27.1224H35.3673L39.7346 23.5102Z" fill="#324CE0"/>
<path d="M77.0816 34.4898C76.3941 34.4898 75.8367 33.9324 75.8367 33.2449C75.8367 32.5574 76.3941 32 77.0816 32C77.7692 32 78.3265 32.5574 78.3265 33.2449C78.3265 33.9324 77.7692 34.4898 77.0816 34.4898Z" fill="white"/>
<path d="M70.4489 33.2449C70.4489 33.9324 71.0063 34.4898 71.6938 34.4898C72.3768 34.4789 72.9278 33.9279 72.9387 33.2449C72.9387 32.5574 72.3814 32 71.6938 32C71.0063 32 70.4489 32.5574 70.4489 33.2449Z" fill="white"/>
<path d="M66.2857 34.4898C65.5982 34.4898 65.0408 33.9324 65.0408 33.2449C65.0408 32.5574 65.5982 32 66.2857 32C66.9733 32 67.5306 32.5574 67.5306 33.2449C67.5306 33.9324 66.9733 34.4898 66.2857 34.4898Z" fill="white"/>
<path d="M60.8775 34.4898C60.19 34.4898 59.6326 33.9324 59.6326 33.2449C59.6326 32.5574 60.19 32 60.8775 32C61.5651 32 62.1224 32.5574 62.1224 33.2449C62.1224 33.9324 61.5651 34.4898 60.8775 34.4898Z" fill="white"/>
<path d="M55.4898 34.4898C54.8023 34.4898 54.2449 33.9324 54.2449 33.2449C54.2449 32.5574 54.8023 32 55.4898 32C56.1774 32 56.7347 32.5574 56.7347 33.2449C56.7347 33.9324 56.1774 34.4898 55.4898 34.4898Z" fill="white"/>
<path d="M48.8367 33.2449C48.8367 33.9324 49.3941 34.4898 50.0816 34.4898C50.7692 34.4898 51.3265 33.9324 51.3265 33.2449C51.3265 32.5574 50.7692 32 50.0816 32C49.3941 32 48.8367 32.5574 48.8367 33.2449Z" fill="white"/>
<path d="M43.4285 33.2449C43.4285 33.9324 43.9859 34.4898 44.6734 34.4898C45.361 34.4898 45.9183 33.9324 45.9183 33.2449C45.9183 32.5574 45.361 32 44.6734 32C43.9859 32 43.4285 32.5574 43.4285 33.2449Z" fill="white"/>
<path d="M39.2654 34.4898C38.5778 34.4898 38.0205 33.9324 38.0205 33.2449C38.0205 32.5574 38.5778 32 39.2654 32C39.9529 32 40.5103 32.5574 40.5103 33.2449C40.5103 33.9324 39.9529 34.4898 39.2654 34.4898Z" fill="white"/>
<path d="M32.6939 33.2449C32.6939 33.9324 33.2513 34.4898 33.9388 34.4898C34.6218 34.4789 35.1728 33.9279 35.1837 33.2449C35.1837 32.5574 34.6264 32 33.9388 32C33.2513 32 32.6939 32.5574 32.6939 33.2449Z" fill="white"/>
<path d="M13.9591 3.32652C14.5738 3.1875 15.1259 2.85052 15.5306 2.36733C16.5116 1.20266 17.9567 0.530457 19.4795 0.530457C21.0023 0.530457 22.4475 1.20266 23.4285 2.36733C23.8259 2.84906 24.3711 3.18622 24.9795 3.32652C27.0356 3.84121 28.4388 5.74058 28.3265 7.85713C28.0824 10.2173 26.0659 11.9939 23.6938 11.9388H15.2653C12.8931 11.9939 10.8767 10.2173 10.6326 7.85713C10.51 5.74416 11.9064 3.84229 13.9591 3.32652Z" fill="#DFE8F4"/>
<path d="M83.3061 68.1225C83.9208 67.9835 84.4729 67.6465 84.8776 67.1633C85.8586 65.9986 87.3037 65.3264 88.8265 65.3264C90.3493 65.3264 91.7945 65.9986 92.7755 67.1633C93.1729 67.645 93.718 67.9822 94.3265 68.1225C96.3874 68.63 97.794 70.5341 97.6735 72.6531C97.4294 75.0133 95.4129 76.7899 93.0408 76.7347H84.6123C82.2401 76.7899 80.2237 75.0133 79.9796 72.6531C79.8487 70.5377 81.2486 68.631 83.3061 68.1225Z" fill="#DFE8F4"/>
</svg>
