<svg width="90" height="62" viewBox="0 0 90 62" fill="none" xmlns="http://www.w3.org/2000/svg">
<path fill-rule="evenodd" clip-rule="evenodd" d="M15.9464 61.4443L15.9456 61.4439L16.0918 56.4637L35.3673 57.019L35.222 62L15.9464 61.4443ZM30.8087 0.594727L23.8692 1.06131L38.3194 28.7299L3.57069 33.0229C-1.56595 33.577 -1.21309 41.3003 4.96999 41.1343L79.582 39.8937C87.3885 39.766 92.7681 31.1246 87.417 28.6456C86.168 28.0051 85.1189 27.4278 84.1881 26.9155C77.9372 23.4754 77.0234 22.9725 56.7311 26.0062L30.8087 0.594727ZM24.3059 53.3097L24.4521 48.3291L48.8666 49.0329L48.7208 54.0126L24.3059 53.3097ZM10.8182 21.4544C15.05 25.0684 15.2737 25.2595 14.9477 26.2759C14.6242 27.2844 14.3767 27.3077 8.86791 27.8272C7.49987 27.9562 5.80735 28.1158 3.70863 28.3287C2.01335 28.4998 1.95678 27.1822 1.76841 22.7948C1.72635 21.815 1.67771 20.6822 1.60279 19.3787C1.55571 18.5806 2.14332 17.8851 2.94273 17.7925C3.3923 17.74 3.78639 17.6823 4.13563 17.6311C5.37654 17.4493 6.05136 17.3505 6.63801 17.8617C8.34363 19.3411 9.7167 20.5137 10.8182 21.4544Z" fill="#C9CFFF"/>
</svg>
