<svg width="16" height="16" viewBox="0 0 16 16" fill="none" xmlns="http://www.w3.org/2000/svg">
<path d="M12 4C12 6.20914 10.2091 8 8 8C5.79086 8 4 6.20914 4 4C4 1.79086 5.79086 0 8 0C10.2091 0 12 1.79086 12 4Z" fill="#414040"/>
<path d="M8.00019 9.14258C10.5259 9.14258 12.8202 9.71401 14.5288 10.6226C15.4467 11.1266 16.0124 12.0954 16.0002 13.1426C16.0002 14.7205 14.721 15.9997 13.1431 15.9997H2.85734C1.27938 15.9997 0.000193873 14.7205 0.000193873 13.1426C-0.0120198 12.0954 0.553639 11.1266 1.47162 10.6226C3.18019 9.71401 5.47448 9.14258 8.00019 9.14258Z" fill="#414040"/>
</svg>
