<svg width="110" height="133" viewBox="0 0 110 133" fill="none" xmlns="http://www.w3.org/2000/svg">
<mask id="mask0" mask-type="alpha" maskUnits="userSpaceOnUse" x="4" y="14" width="105" height="118">
<path fill-rule="evenodd" clip-rule="evenodd" d="M4.99902 39.9728L74.965 14.5072L108.353 106.241L38.3874 131.706L4.99902 39.9728Z" fill="white"/>
</mask>
<g mask="url(#mask0)">
<path fill-rule="evenodd" clip-rule="evenodd" d="M88.8106 97.0354L87.1408 92.4476L88.8242 91.8349L88.4466 90.7974L83.5984 92.562L83.991 93.6408L85.7871 92.9871L87.4419 97.5336L88.8106 97.0354ZM61.8649 106.239C63.3521 106.482 64.602 106.236 65.6657 105.33C66.282 104.804 66.5017 104.102 66.1975 103.317C65.9085 102.57 65.2762 102.337 64.5408 102.355C64 102.369 63.4586 102.495 62.9221 102.47C62.6359 102.457 62.3597 102.23 62.0792 102.099C62.2519 101.836 62.3709 101.424 62.6078 101.339C63.2313 101.114 63.906 101.031 64.6288 100.877C64.6374 100.607 64.6478 100.275 64.6578 99.9587C63.422 99.6362 61.8407 100.109 61.0948 100.982C60.6244 101.532 60.4998 102.158 60.7661 102.818C61.0435 103.506 61.6266 103.794 62.3411 103.779C62.9103 103.768 63.4804 103.646 64.0458 103.671C64.3387 103.684 64.6224 103.909 64.9102 104.038C64.722 104.29 64.5796 104.693 64.337 104.766C63.5934 104.993 62.8116 105.093 61.9647 105.257C61.9432 105.47 61.9094 105.802 61.8649 106.239ZM56.7269 108.116C58.2098 108.35 59.4654 108.113 60.5234 107.195C61.13 106.669 61.359 105.97 61.0422 105.18C60.7425 104.433 60.11 104.212 59.3776 104.231C58.8368 104.244 58.2949 104.373 57.7586 104.347C57.4755 104.333 57.2032 104.097 56.9262 103.961C57.1034 103.7 57.2285 103.293 57.4682 103.207C58.0926 102.985 58.7672 102.904 59.4857 102.753C59.4918 102.472 59.4991 102.141 59.5059 101.825C58.2702 101.526 56.7384 101.971 55.992 102.802C55.4863 103.366 55.3376 104.013 55.6251 104.708C55.9086 105.391 56.4986 105.671 57.2115 105.655C57.7808 105.642 58.351 105.517 58.9162 105.543C59.2059 105.556 59.4858 105.789 59.77 105.922C59.5755 106.172 59.4257 106.57 59.1783 106.645C58.4351 106.87 57.6536 106.969 56.8127 107.132C56.7934 107.354 56.7644 107.687 56.7269 108.116ZM56.8029 108.645C55.3205 107.115 53.9066 105.632 52.4615 104.181C52.0653 103.783 50.9508 104.18 50.9032 104.738C50.7292 106.779 50.602 108.823 50.4559 110.883C51.6279 110.732 51.8739 110.624 51.8362 110.027C51.7875 109.26 52.1553 108.965 52.8097 108.799C53.2235 108.694 53.6087 108.46 54.0248 108.387C54.276 108.344 54.6883 108.409 54.8107 108.58C55.4385 109.459 56.0519 109.023 56.8029 108.645ZM46.4635 110.725C46.903 110.565 47.2306 110.465 47.5413 110.328C47.8521 110.19 48.1653 110.043 48.4439 109.851C49.3243 109.246 49.6176 108.357 49.2854 107.394C48.9395 106.392 48.1145 105.775 47.0414 105.981C45.8881 106.201 44.7755 106.635 43.6027 106.989L45.6807 112.698L47.006 112.216L46.4635 110.725ZM65.6618 99.0689L67.7052 104.683L68.9712 104.222C68.8251 103.69 68.6934 103.21 68.5413 102.655C69.0908 102.455 69.5967 102.33 70.0466 102.096C71.2515 101.472 71.7087 100.44 71.323 99.3462C70.9378 98.2525 69.9117 97.6904 68.6076 98.0186C67.6216 98.2669 66.6816 98.6977 65.6618 99.0689ZM74.2848 95.8018C72.4897 96.4236 71.6013 98.1072 72.1767 99.7961C72.7599 101.507 74.4944 102.334 76.2543 101.739C78.1031 101.114 79.0278 99.4128 78.4456 97.7082C77.8483 95.9592 76.1184 95.1666 74.2848 95.8018ZM83.587 96.9339C84.2813 95.9812 84.4262 95.0223 83.6725 94.0766C82.9337 93.1496 81.9426 93.168 80.9369 93.475C80.0738 93.7385 79.2361 94.0836 78.3554 94.4042L80.4099 100.049L81.7765 99.5516L81.2558 98.1211C81.9943 97.6357 82.61 97.6229 83.177 98.2193C83.8673 98.9453 84.5715 98.7389 85.3655 98.2323C84.7471 97.7809 84.1805 97.3674 83.587 96.9339ZM60.9888 84.9122C72.5525 80.6629 78.507 67.8088 74.2612 56.2611C70.0373 44.7731 57.1792 38.8448 45.6467 43.0679C34.1489 47.2783 28.1846 60.1519 32.4007 71.6582C36.6166 83.1639 49.4964 89.1351 60.9888 84.9122ZM38.3852 131.703L4.99867 39.9745L5.87179 39.6567C26.6158 32.1058 47.3586 24.5524 68.1043 17.0067C72.4287 15.4338 75.8953 17.0668 77.4687 21.3896C86.9075 47.3211 96.3474 73.2525 105.776 99.188C106.048 99.9351 106.288 100.715 106.388 101.499C106.804 104.774 105.309 107.234 102.22 108.464C101.742 108.654 101.255 108.821 100.771 108.997C80.3226 116.44 59.8739 123.882 39.4254 131.325L38.3852 131.703Z" fill="url(#paint0_linear)"/>
</g>
<mask id="mask1" mask-type="alpha" maskUnits="userSpaceOnUse" x="6" y="4" width="59" height="33">
<path fill-rule="evenodd" clip-rule="evenodd" d="M6.43457 24.3733L59.8144 4.94462L64.1314 16.8055L10.7516 36.2341L6.43457 24.3733Z" fill="white"/>
</mask>
<g mask="url(#mask1)">
<path fill-rule="evenodd" clip-rule="evenodd" d="M23.6917 31.3C34.4066 26.2998 45.1978 21.2642 56.0152 16.2161L54.9024 13.1585C53.4395 13.9876 52.0272 14.7797 50.6227 15.5853C41.701 20.7027 32.7909 25.841 23.8499 30.9249C22.398 31.7504 20.8409 32.4151 19.2805 33.0202C16.4587 34.1145 13.5975 35.1076 10.6755 36.0251C10.8225 35.8881 10.9579 35.7353 11.1183 35.6163C22.3513 27.2693 33.5858 18.9243 44.8223 10.5818C46.2171 9.54619 48.1644 9.47908 49.7129 10.5677C50.6296 11.2124 51.386 12.0847 52.2843 12.9196C53.3488 12.317 54.509 11.6602 55.7391 10.9637L57.4078 15.5485C59.2272 14.7126 60.9749 13.9097 62.7762 13.082L64.0785 16.6599L62.7726 17.1352L62.0153 15.0546C49.3162 20.8648 37.0064 27.3513 23.6917 31.3Z" fill="#7093FF"/>
</g>
<path fill-rule="evenodd" clip-rule="evenodd" d="M80.0931 94.8402L80.9212 97.1155C81.5813 96.6214 82.1888 96.2551 82.6544 95.7561C82.7712 95.6308 82.4684 94.797 82.2969 94.7751C81.6207 94.6893 80.9199 94.7971 80.0931 94.8402ZM83.588 96.9339C84.1816 97.3673 84.7482 97.7808 85.3666 98.2323C84.5726 98.7388 83.8685 98.9454 83.178 98.2192C82.6111 97.6229 81.9953 97.6357 81.2569 98.1213L81.7775 99.5516L80.411 100.049L78.3564 94.4041C79.2371 94.0836 80.0751 93.7386 80.9379 93.475C81.9437 93.1679 82.9348 93.1496 83.6736 94.0766C84.4274 95.0223 84.2825 95.9812 83.588 96.9339Z" fill="white"/>
<path fill-rule="evenodd" clip-rule="evenodd" d="M73.538 99.2961C73.8699 100.347 74.8712 100.883 75.8886 100.554C76.9187 100.221 77.4204 99.2102 77.0733 98.1673C76.7334 97.1456 75.7778 96.6391 74.7807 96.9522C73.7122 97.2875 73.2056 98.2432 73.538 99.2961ZM74.2859 95.8018C76.1195 95.1666 77.8494 95.9592 78.4467 97.7082C79.0289 99.4128 78.1041 101.114 76.2554 101.739C74.4953 102.334 72.7611 101.507 72.1777 99.7962C71.6022 98.1072 72.4906 96.4236 74.2859 95.8018Z" fill="white"/>
<path fill-rule="evenodd" clip-rule="evenodd" d="M67.3843 99.4864L68.2103 101.756C68.8735 101.247 69.4781 100.872 69.9397 100.367C70.0542 100.241 69.7362 99.4078 69.5622 99.3884C68.8838 99.3121 68.1833 99.4321 67.3843 99.4864ZM65.6632 99.0688C66.6828 98.6977 67.6229 98.2669 68.609 98.0186C69.9129 97.6904 70.939 98.2526 71.3244 99.3462C71.71 100.44 71.2529 101.472 70.048 102.096C69.5979 102.33 69.0921 102.455 68.5425 102.655C68.6948 103.21 68.8265 103.69 68.9726 104.222L67.7065 104.683L65.6632 99.0688Z" fill="white"/>
<path fill-rule="evenodd" clip-rule="evenodd" d="M46.065 109.578C46.8238 109.251 47.7541 109.289 47.9304 108.341C47.9869 108.037 47.6689 107.379 47.4873 107.366C46.8032 107.317 46.1048 107.466 45.327 107.55L46.065 109.578ZM46.4641 110.725L47.0067 112.216L45.6816 112.698L43.6035 106.989C44.7763 106.635 45.8887 106.201 47.042 105.981C48.1152 105.775 48.9404 106.392 49.2861 107.394C49.6183 108.357 49.325 109.246 48.4445 109.851C48.166 110.043 47.8528 110.19 47.542 110.328C47.2313 110.465 46.9039 110.565 46.4641 110.725Z" fill="white"/>
<path fill-rule="evenodd" clip-rule="evenodd" d="M52.0642 105.545C52.0282 106.43 52.0001 107.116 51.9705 107.845L53.6221 107.244C53.1013 106.676 52.652 106.186 52.0642 105.545ZM56.8036 108.645C56.0527 109.023 55.4391 109.459 54.8114 108.58C54.6891 108.409 54.2767 108.344 54.0255 108.387C53.6093 108.46 53.2241 108.694 52.8104 108.799C52.1559 108.966 51.7881 109.26 51.8367 110.027C51.8746 110.624 51.6285 110.732 50.4567 110.883C50.6026 108.823 50.7299 106.779 50.904 104.738C50.9516 104.18 52.0659 103.783 52.4623 104.181C53.9074 105.632 55.3211 107.115 56.8036 108.645Z" fill="white"/>
<path fill-rule="evenodd" clip-rule="evenodd" d="M56.7283 108.116C56.7657 107.687 56.7946 107.354 56.814 107.132C57.6549 106.969 58.4364 106.87 59.1796 106.645C59.4271 106.57 59.5769 106.172 59.7714 105.922C59.4872 105.789 59.2072 105.556 58.9175 105.543C58.3523 105.517 57.7819 105.642 57.2127 105.655C56.5 105.671 55.9099 105.392 55.6264 104.707C55.3389 104.014 55.4875 103.366 55.9933 102.802C56.7395 101.971 58.2715 101.526 59.5073 101.825C59.5005 102.141 59.4932 102.472 59.487 102.753C58.7685 102.904 58.0939 102.985 57.4696 103.207C57.2298 103.293 57.1048 103.7 56.9274 103.961C57.2046 104.097 57.4767 104.333 57.76 104.347C58.2962 104.373 58.838 104.244 59.3789 104.231C60.1113 104.212 60.7439 104.433 61.0435 105.18C61.3601 105.97 61.1314 106.669 60.5247 107.195C59.4667 108.113 58.2111 108.35 56.7283 108.116Z" fill="white"/>
<path fill-rule="evenodd" clip-rule="evenodd" d="M61.8664 106.239C61.9108 105.802 61.9446 105.469 61.9662 105.257C62.813 105.092 63.5949 104.993 64.3385 104.766C64.5809 104.693 64.7234 104.29 64.9117 104.038C64.6239 103.909 64.3402 103.684 64.0472 103.671C63.4819 103.646 62.9117 103.768 62.3425 103.779C61.6281 103.794 61.0448 103.506 60.7674 102.818C60.501 102.158 60.6257 101.532 61.0961 100.982C61.842 100.109 63.4233 99.6362 64.6592 99.9587C64.6492 100.275 64.6387 100.607 64.6302 100.877C63.9074 101.031 63.2328 101.114 62.6092 101.339C62.3723 101.424 62.2532 101.836 62.0804 102.099C62.361 102.23 62.6374 102.457 62.9234 102.47C63.4598 102.495 64.0015 102.369 64.5422 102.355C65.2776 102.337 65.9098 102.57 66.1989 103.317C66.5032 104.102 66.2834 104.804 65.6671 105.33C64.6033 106.236 63.3534 106.482 61.8664 106.239Z" fill="white"/>
<path fill-rule="evenodd" clip-rule="evenodd" d="M88.8118 97.0355L87.4432 97.5336L85.7884 92.9871L83.9922 93.6408L83.5996 92.562L88.4478 90.7974L88.8254 91.8349L87.142 92.4476L88.8118 97.0355Z" fill="white"/>
<path fill-rule="evenodd" clip-rule="evenodd" d="M54.7607 64.671L63.1134 61.6308C63.4708 63.0074 63.8639 64.3368 64.1525 65.6886C64.4081 66.8877 64.5758 68.1083 64.7156 69.3272C64.744 69.5734 64.5348 70.0147 64.3305 70.0931C62.1952 70.9125 60.039 71.6769 57.887 72.4523C57.8135 72.4788 57.7237 72.4601 57.5971 72.4638L54.7607 64.671Z" fill="#7093FF"/>
<path fill-rule="evenodd" clip-rule="evenodd" d="M55.4481 73.3549C53.642 74.0122 51.8795 74.6539 50.1169 75.2953C48.342 75.9411 48.2876 75.9722 47.3325 74.3059C46.2605 72.435 45.2999 70.5003 44.252 68.5203L52.5846 65.4874L55.4481 73.3549Z" fill="#7093FF"/>
<path fill-rule="evenodd" clip-rule="evenodd" d="M62.2817 59.4858L53.9814 62.5069L51.418 55.464L58.7593 52.792C60.2021 54.8575 61.3206 57.1183 62.2817 59.4858Z" fill="#7093FF"/>
<path fill-rule="evenodd" clip-rule="evenodd" d="M49.2211 56.2064L51.7945 63.2767L43.4923 66.2984C43.0624 64.4452 42.5887 62.6338 42.2316 60.7995C41.8575 58.8782 41.9067 58.8686 43.7357 58.2029L49.2211 56.2064Z" fill="#7093FF"/>
<path fill-rule="evenodd" clip-rule="evenodd" d="M65.3028 60.8485L72.6154 58.187C72.8353 59.3295 73.1548 60.4249 73.2343 61.5373C73.3454 63.0961 73.3006 64.668 73.2651 66.233C73.259 66.5035 73.027 66.921 72.7979 67.0103C70.9138 67.745 69.0058 68.4183 67.1326 69.1C66.5173 66.3257 65.9159 63.6131 65.3028 60.8485Z" fill="#7093FF"/>
<path fill-rule="evenodd" clip-rule="evenodd" d="M46.0454 76.7723C44.1663 77.4562 42.2402 78.1666 40.3029 78.8458C40.138 78.9036 39.8433 78.8171 39.7055 78.6916C37.6272 76.8003 36.0501 74.5509 34.9072 71.9212L42.153 69.2839C43.4385 71.757 44.7221 74.2265 46.0454 76.7723Z" fill="#7093FF"/>
<path fill-rule="evenodd" clip-rule="evenodd" d="M61.0495 51.9035C63.049 51.1757 65.0041 50.4535 66.971 49.7654C67.1565 49.7004 67.4922 49.7724 67.6304 49.9096C69.3925 51.6571 70.7392 53.6901 71.7581 56.0183L64.4758 58.6688C63.3519 56.4494 62.223 54.2202 61.0495 51.9035Z" fill="#7093FF"/>
<path fill-rule="evenodd" clip-rule="evenodd" d="M39.6594 59.6863C40.2472 62.2119 40.8083 64.623 41.3811 67.0844L34.1279 69.7243C33.5001 67.7824 33.2595 65.82 33.2621 63.8221C33.2643 62.0101 33.2739 62.0103 34.9787 61.39C36.533 60.8243 38.0873 60.2585 39.6594 59.6863Z" fill="#7093FF"/>
<path fill-rule="evenodd" clip-rule="evenodd" d="M57.2685 50.8659C57.0855 50.9458 56.911 51.0333 56.7288 51.0998C54.7231 51.8326 52.7163 52.5619 50.5857 53.3373L49.0599 49.1453L47.54 44.9695C50.4658 44.1869 55.1424 47.6469 57.2685 50.8659Z" fill="#7093FF"/>
<path fill-rule="evenodd" clip-rule="evenodd" d="M45.4481 45.7306L45.7289 46.5022L48.473 54.0414L41.9321 56.4221C40.9742 53.494 42.9518 47.2856 45.4481 45.7306Z" fill="#7093FF"/>
<path fill-rule="evenodd" clip-rule="evenodd" d="M61.163 82.3113L58.3994 74.7184L64.7484 72.4076C65.5035 75.3025 63.5819 80.7194 61.163 82.3113Z" fill="#7093FF"/>
<path fill-rule="evenodd" clip-rule="evenodd" d="M49.9541 77.7662L56.2023 75.492L58.9421 83.0195C56.4924 83.5499 51.7665 80.8035 49.9541 77.7662Z" fill="#7093FF"/>
<path fill-rule="evenodd" clip-rule="evenodd" d="M53.3271 44.0217C55.9512 43.38 62.429 45.4567 65.3326 47.9705L64.2037 48.3814C62.8613 48.8699 61.5247 49.3759 60.1708 49.8303C59.9364 49.909 59.5233 49.8718 59.3724 49.715C58.4046 48.7089 57.547 47.5913 56.5361 46.6339C55.529 45.6805 54.3846 44.8722 53.3271 44.0217Z" fill="#7093FF"/>
<path fill-rule="evenodd" clip-rule="evenodd" d="M40.5951 48.5669C39.6408 51.4203 39.4453 54.3426 39.5595 57.3188L33.7942 59.4172C34.9056 54.9742 37.1307 51.3952 40.5951 48.5669Z" fill="#7093FF"/>
<path fill-rule="evenodd" clip-rule="evenodd" d="M66.0655 79.4133C66.8553 76.9929 67.1521 74.5165 67.146 71.9909C67.1456 71.783 67.2786 71.4463 67.4333 71.3865C69.0974 70.7448 70.7782 70.1466 72.6288 69.4731C71.4147 73.5754 69.2514 76.8182 66.0655 79.4133Z" fill="#7093FF"/>
<path fill-rule="evenodd" clip-rule="evenodd" d="M53.506 83.9837C49.3992 84.0506 45.6722 82.9332 42.0846 80.5959C43.954 79.9155 45.6498 79.287 47.3592 78.698C47.4915 78.6525 47.7685 78.843 47.8953 78.9936C49.5231 80.928 51.3366 82.648 53.506 83.9837Z" fill="#7093FF"/>
<path fill-rule="evenodd" clip-rule="evenodd" d="M80.0928 94.8402C80.9197 94.7972 81.6204 94.6893 82.2966 94.7751C82.4681 94.797 82.7709 95.6308 82.6541 95.7561C82.1885 96.2551 81.5811 96.6214 80.9209 97.1156L80.0928 94.8402Z" fill="#7093FF"/>
<path fill-rule="evenodd" clip-rule="evenodd" d="M73.5376 99.2961C73.2051 98.2432 73.7117 97.2875 74.7803 96.9522C75.7774 96.6391 76.733 97.1456 77.0729 98.1673C77.4199 99.2102 76.9183 100.221 75.8881 100.554C74.8708 100.883 73.8694 100.347 73.5376 99.2961Z" fill="#7093FF"/>
<path fill-rule="evenodd" clip-rule="evenodd" d="M67.3838 99.4864C68.1828 99.4321 68.8833 99.3121 69.5617 99.3884C69.7357 99.4078 70.0537 100.241 69.9392 100.367C69.4776 100.872 68.8729 101.247 68.2098 101.756L67.3838 99.4864Z" fill="#7093FF"/>
<path fill-rule="evenodd" clip-rule="evenodd" d="M46.0651 109.578L45.3271 107.55C46.1049 107.466 46.8034 107.317 47.4874 107.366C47.669 107.379 47.9871 108.037 47.9305 108.341C47.7542 109.289 46.8239 109.251 46.0651 109.578Z" fill="#7093FF"/>
<path fill-rule="evenodd" clip-rule="evenodd" d="M52.0643 105.545C52.6521 106.186 53.1015 106.676 53.6222 107.244L51.9706 107.845C52.0002 107.116 52.0283 106.43 52.0643 105.545Z" fill="#7093FF"/>
<defs>
<linearGradient id="paint0_linear" x1="-4.08072" y1="17.3057" x2="-26.9497" y2="118.737" gradientUnits="userSpaceOnUse">
<stop stop-color="#A9C5FF"/>
<stop offset="1" stop-color="#7093FF"/>
</linearGradient>
</defs>
</svg>
