<svg width="30" height="21" viewBox="0 0 30 21" fill="none" xmlns="http://www.w3.org/2000/svg">
<path fill-rule="evenodd" clip-rule="evenodd" d="M4.15803 21H16.9208C19.1998 21 21.0473 19.1525 21.0473 16.8735V4.14225C21.0515 3.04511 20.6186 1.99147 19.8442 1.21419C19.0699 0.436908 18.0179 -7.9914e-06 16.9208 1.09594e-10H4.15803C3.05253 -7.93071e-06 1.99253 0.440227 1.2123 1.22341C0.432067 2.0066 -0.00415764 3.06825 2.98721e-05 4.17375V16.8263C-0.00415764 17.9317 0.432067 18.9934 1.2123 19.7766C1.99253 20.5598 3.05253 21 4.15803 21ZM16.8 3.15C17.3799 3.15 17.85 3.6201 17.85 4.2C17.85 4.7799 17.3799 5.25 16.8 5.25C16.2201 5.25 15.75 4.7799 15.75 4.2C15.75 3.6201 16.2201 3.15 16.8 3.15Z" fill="#3D5AFE"/>
<path d="M29.4003 4.32589V16.6739C29.4084 17.1614 29.1598 17.6173 28.7455 17.8744C28.3313 18.1316 27.8124 18.1522 27.3791 17.9286L24.0611 16.2224C23.4913 15.9283 23.1329 15.3411 23.1318 14.6999V6.29989C23.1388 5.66435 23.4963 5.08465 24.0611 4.79314L27.3791 3.09214C27.8091 2.87041 28.3235 2.88892 28.7364 3.14096C29.1494 3.39301 29.401 3.84212 29.4003 4.32589Z" fill="#3D5AFE"/>
</svg>
