<svg width="1440" height="94" viewBox="0 0 1440 94" fill="none" xmlns="http://www.w3.org/2000/svg">
<path d="M0 0V50.1003C0 50.1003 441.025 -23.9638 719.55 50.1003C1091 148.875 1440 50.1003 1440 50.1003V0H0Z" fill="#F6F7FF"/>
</svg>
